EESchema Schematic File Version 2
LIBS:power
LIBS:device
LIBS:transistors
LIBS:conn
LIBS:linear
LIBS:regul
LIBS:74xx
LIBS:cmos4000
LIBS:adc-dac
LIBS:memory
LIBS:xilinx
LIBS:microcontrollers
LIBS:dsp
LIBS:microchip
LIBS:analog_switches
LIBS:motorola
LIBS:texas
LIBS:intel
LIBS:audio
LIBS:interface
LIBS:digital-audio
LIBS:philips
LIBS:display
LIBS:cypress
LIBS:siliconi
LIBS:opto
LIBS:atmel
LIBS:contrib
LIBS:valves
LIBS:my-passives
LIBS:my-regulators
LIBS:my-transformers
LIBS:my-power-supplies
LIBS:my-power
LIBS:lt3045-power-supply-2x12V-cache
EELAYER 25 0
EELAYER END
$Descr A3 16535 11693
encoding utf-8
Sheet 1 1
Title ""
Date ""
Rev ""
Comp ""
Comment1 ""
Comment2 ""
Comment3 ""
Comment4 ""
$EndDescr
$Comp
L Diode_Bridge D1
U 1 1 57DEDC63
P 6800 5550
F 0 "D1" H 6550 5850 50  0000 C CNN
F 1 "KBK6A" H 6800 5550 50  0000 C CNN
F 2 "myDiodes:bridge_KBK6A" H 6800 5550 50  0001 C CNN
F 3 "" H 6800 5550 50  0000 C CNN
	1    6800 5550
	1    0    0    -1  
$EndComp
$Comp
L CP C2
U 1 1 5825DF7C
P 7850 6350
F 0 "C2" H 7875 6450 50  0000 L CNN
F 1 "4700µF 25V" H 7650 6250 50  0000 L CNN
F 2 "Capacitors_ThroughHole:CP_Radial_D16.0mm_P7.50mm" H 7888 6200 50  0001 C CNN
F 3 "" H 7850 6350 50  0000 C CNN
	1    7850 6350
	1    0    0    -1  
$EndComp
$Comp
L C C3
U 1 1 5825E17C
P 8200 5350
F 0 "C3" H 8225 5450 50  0000 L CNN
F 1 "100nF" H 8225 5250 50  0000 L CNN
F 2 "Capacitors_ThroughHole:C_Rect_L7.0mm_W2.5mm_P5.00mm" H 8238 5200 50  0001 C CNN
F 3 "" H 8200 5350 50  0000 C CNN
	1    8200 5350
	1    0    0    -1  
$EndComp
$Comp
L C C4
U 1 1 5825E2C8
P 8200 6350
F 0 "C4" H 8225 6450 50  0000 L CNN
F 1 "100nF" H 8225 6250 50  0000 L CNN
F 2 "Capacitors_ThroughHole:C_Rect_L7.0mm_W2.5mm_P5.00mm" H 8238 6200 50  0001 C CNN
F 3 "" H 8200 6350 50  0000 C CNN
	1    8200 6350
	1    0    0    -1  
$EndComp
$Comp
L C C8
U 1 1 589B972B
P 8500 6350
F 0 "C8" H 8525 6450 50  0000 L CNN
F 1 "100pF" H 8525 6250 50  0000 L CNN
F 2 "Capacitors_ThroughHole:C_Rect_L7.0mm_W2.5mm_P5.00mm" H 8538 6200 50  0001 C CNN
F 3 "" H 8500 6350 50  0000 C CNN
	1    8500 6350
	1    0    0    -1  
$EndComp
$Comp
L C C7
U 1 1 589B977C
P 8500 5350
F 0 "C7" H 8525 5450 50  0000 L CNN
F 1 "100pF" H 8525 5250 50  0000 L CNN
F 2 "Capacitors_ThroughHole:C_Rect_L7.0mm_W2.5mm_P5.00mm" H 8538 5200 50  0001 C CNN
F 3 "" H 8500 5350 50  0000 C CNN
	1    8500 5350
	1    0    0    -1  
$EndComp
$Comp
L CONN_01X03 P1
U 1 1 58F48A6D
P 5900 5550
F 0 "P1" H 5900 5350 50  0000 C CNN
F 1 "2x12V" V 6000 5550 50  0000 C CNN
F 2 "myConnectors:JST-B3P-VH" H 5900 5550 50  0001 C CNN
F 3 "" H 5900 5550 50  0000 C CNN
	1    5900 5550
	-1   0    0    1   
$EndComp
$Comp
L CONN_01X03 P7
U 1 1 5974BAB5
P 12250 5850
F 0 "P7" H 12250 6050 50  0000 C CNN
F 1 "OUT" H 12400 5850 50  0000 C CNN
F 2 "myConnectors:JST-B3P-VH" H 12250 5850 50  0001 C CNN
F 3 "" H 12250 5850 50  0000 C CNN
	1    12250 5850
	1    0    0    1   
$EndComp
$Comp
L LT3045_2x12V U1
U 1 1 60102939
P 11050 5900
F 0 "U1" H 11050 6350 50  0000 C CNN
F 1 "LT3045_2x12V" H 11000 6200 50  0000 C CNN
F 2 "myPowerSupplies:LT-3045-2x12V-VERTICAL" H 11050 5900 50  0001 C CNN
F 3 "" H 11050 5900 50  0000 C CNN
	1    11050 5900
	1    0    0    -1  
$EndComp
$Comp
L CP C1
U 1 1 5825DF44
P 7850 5350
F 0 "C1" H 7875 5450 50  0000 L CNN
F 1 "4700µF 25V" H 7650 5250 50  0000 L CNN
F 2 "Capacitors_ThroughHole:CP_Radial_D16.0mm_P7.50mm" H 7888 5200 50  0001 C CNN
F 3 "" H 7850 5350 50  0000 C CNN
	1    7850 5350
	1    0    0    -1  
$EndComp
$Comp
L GND #PWR2
U 1 1 60102BE1
P 7200 5950
F 0 "#PWR2" H 7200 5700 50  0001 C CNN
F 1 "GND" H 7200 5800 50  0000 C CNN
F 2 "" H 7200 5950 50  0000 C CNN
F 3 "" H 7200 5950 50  0000 C CNN
	1    7200 5950
	1    0    0    -1  
$EndComp
$Comp
L GND #PWR1
U 1 1 603CD010
P 6200 6050
F 0 "#PWR1" H 6200 5800 50  0001 C CNN
F 1 "GND" H 6200 5900 50  0000 C CNN
F 2 "" H 6200 6050 50  0000 C CNN
F 3 "" H 6200 6050 50  0000 C CNN
	1    6200 6050
	1    0    0    -1  
$EndComp
$Comp
L CP C6
U 1 1 597575A3
P 7500 6350
F 0 "C6" H 7525 6450 50  0000 L CNN
F 1 "4700µF 25V" H 7300 6550 50  0000 L CNN
F 2 "Capacitors_ThroughHole:CP_Radial_D16.0mm_P7.50mm" H 7538 6200 50  0001 C CNN
F 3 "" H 7500 6350 50  0000 C CNN
	1    7500 6350
	1    0    0    -1  
$EndComp
$Comp
L CP C5
U 1 1 59757320
P 7500 5350
F 0 "C5" H 7525 5450 50  0000 L CNN
F 1 "4700µF 25V" H 7300 5550 50  0000 L CNN
F 2 "Capacitors_ThroughHole:CP_Radial_D16.0mm_P7.50mm" H 7538 5200 50  0001 C CNN
F 3 "" H 7500 5350 50  0000 C CNN
	1    7500 5350
	1    0    0    -1  
$EndComp
$Comp
L LM317_3PinPackage U2
U 1 1 6138C8B0
P 9300 4850
F 0 "U2" H 9150 4975 50  0000 C CNN
F 1 "LM317" H 9300 4975 50  0000 L CNN
F 2 "TO_SOT_Packages_THT:TO-220_Vertical" H 9300 5100 50  0001 C CIN
F 3 "" H 9300 4850 50  0001 C CNN
	1    9300 4850
	1    0    0    -1  
$EndComp
$Comp
L R R1
U 1 1 6138C999
P 9050 5350
F 0 "R1" V 9130 5350 50  0000 C CNN
F 1 "2.7K" V 9050 5350 50  0000 C CNN
F 2 "Resistors_ThroughHole:R_Axial_DIN0207_L6.3mm_D2.5mm_P10.16mm_Horizontal" V 8980 5350 50  0001 C CNN
F 3 "" H 9050 5350 50  0001 C CNN
	1    9050 5350
	0    -1   -1   0   
$EndComp
$Comp
L R R2
U 1 1 6138CB5E
P 9050 6350
F 0 "R2" V 9130 6350 50  0000 C CNN
F 1 "2.7K" V 9050 6350 50  0000 C CNN
F 2 "Resistors_ThroughHole:R_Axial_DIN0207_L6.3mm_D2.5mm_P10.16mm_Horizontal" V 8980 6350 50  0001 C CNN
F 3 "" H 9050 6350 50  0001 C CNN
	1    9050 6350
	0    1    1    0   
$EndComp
$Comp
L R R3
U 1 1 6138CD65
P 9700 5100
F 0 "R3" V 9780 5100 50  0000 C CNN
F 1 "240" V 9700 5100 50  0000 C CNN
F 2 "Resistors_ThroughHole:R_Axial_DIN0207_L6.3mm_D2.5mm_P10.16mm_Horizontal" V 9630 5100 50  0001 C CNN
F 3 "" H 9700 5100 50  0001 C CNN
	1    9700 5100
	1    0    0    -1  
$EndComp
$Comp
L LM337_TO220 U3
U 1 1 6138D065
P 9300 6850
F 0 "U3" H 9150 6725 50  0000 C CNN
F 1 "LM337" H 9300 6725 50  0000 L CNN
F 2 "TO_SOT_Packages_THT:TO-220_Vertical" H 9300 6650 50  0001 C CIN
F 3 "" H 9300 6850 50  0001 C CNN
	1    9300 6850
	1    0    0    -1  
$EndComp
$Comp
L R R4
U 1 1 6138D0CA
P 9700 6600
F 0 "R4" V 9780 6600 50  0000 C CNN
F 1 "240" V 9700 6600 50  0000 C CNN
F 2 "Resistors_ThroughHole:R_Axial_DIN0207_L6.3mm_D2.5mm_P10.16mm_Horizontal" V 9630 6600 50  0001 C CNN
F 3 "" H 9700 6600 50  0001 C CNN
	1    9700 6600
	1    0    0    -1  
$EndComp
$Comp
L CP C10
U 1 1 6138CE9F
P 9900 6100
F 0 "C10" H 9925 6200 50  0000 L CNN
F 1 "10µF 25V" H 9750 6000 50  0000 L CNN
F 2 "Capacitors_ThroughHole:CP_Radial_D5.0mm_P2.00mm" H 9938 5950 50  0001 C CNN
F 3 "" H 9900 6100 50  0000 C CNN
	1    9900 6100
	1    0    0    -1  
$EndComp
$Comp
L CP C9
U 1 1 6138D0A2
P 9900 5600
F 0 "C9" H 9925 5700 50  0000 L CNN
F 1 "10µF 25V" H 9750 5500 50  0000 L CNN
F 2 "Capacitors_ThroughHole:CP_Radial_D5.0mm_P2.00mm" H 9938 5450 50  0001 C CNN
F 3 "" H 9900 5600 50  0000 C CNN
	1    9900 5600
	1    0    0    -1  
$EndComp
Wire Wire Line
	8200 6850 8200 6500
Wire Wire Line
	8200 5500 8200 6200
Wire Wire Line
	8500 5500 8500 6200
Wire Wire Line
	8500 4850 8500 5200
Connection ~ 8200 6850
Connection ~ 8200 4850
Wire Wire Line
	8200 4850 8200 5200
Connection ~ 7850 6850
Wire Wire Line
	7850 6850 7850 6500
Wire Wire Line
	7850 5500 7850 6200
Connection ~ 7850 4850
Wire Wire Line
	7850 4850 7850 5200
Wire Wire Line
	7300 4850 9000 4850
Connection ~ 8500 4850
Wire Wire Line
	8500 6850 8500 6500
Connection ~ 8500 6850
Wire Wire Line
	6250 5450 6100 5450
Wire Wire Line
	6250 5050 6800 5050
Wire Wire Line
	6250 5050 6250 5450
Wire Wire Line
	6250 6050 6250 5650
Wire Wire Line
	6250 5650 6100 5650
Wire Wire Line
	7200 5850 10250 5850
Connection ~ 8500 5850
Wire Wire Line
	12050 5950 11950 5950
Wire Wire Line
	11950 5950 11950 6100
Wire Wire Line
	11950 6000 11850 6000
Wire Wire Line
	11850 5850 12050 5850
Wire Wire Line
	11950 5750 12050 5750
Wire Wire Line
	11950 5600 11950 5750
Wire Wire Line
	11950 5700 11850 5700
Wire Wire Line
	7200 5850 7200 5950
Connection ~ 11950 5700
Connection ~ 11950 6000
Connection ~ 8800 6850
Connection ~ 8800 4850
Wire Wire Line
	7200 5550 7300 5550
Wire Wire Line
	7300 5550 7300 4850
Wire Wire Line
	6400 5550 6300 5550
Wire Wire Line
	6300 5550 6300 6850
Wire Wire Line
	6800 6050 6800 5950
Wire Wire Line
	6800 5050 6800 5150
Connection ~ 7850 5850
Connection ~ 8200 5850
Wire Wire Line
	6300 6850 9000 6850
Connection ~ 7500 6850
Wire Wire Line
	7500 6500 7500 6850
Connection ~ 7500 5850
Wire Wire Line
	7500 5500 7500 6200
Connection ~ 7500 4850
Wire Wire Line
	7500 5200 7500 4850
Wire Wire Line
	8800 6850 8800 6950
Connection ~ 9300 5850
Wire Wire Line
	9900 5750 9900 5950
Wire Wire Line
	9900 6850 9900 6250
Wire Wire Line
	9600 6850 10150 6850
Wire Wire Line
	9600 4850 10150 4850
Wire Wire Line
	9900 4850 9900 5450
Wire Wire Line
	8800 4850 8800 4750
Connection ~ 9900 5850
Wire Wire Line
	10150 6850 10150 6000
Wire Wire Line
	10150 6000 10250 6000
Connection ~ 9900 6850
Wire Wire Line
	10150 4850 10150 5700
Wire Wire Line
	10150 5700 10250 5700
Connection ~ 9900 4850
Wire Wire Line
	9300 5600 9300 6100
Wire Wire Line
	9700 5350 9700 5250
Wire Wire Line
	9200 5350 9700 5350
Connection ~ 9300 5350
Wire Wire Line
	9700 4950 9700 4850
Connection ~ 9700 4850
Wire Wire Line
	9700 6850 9700 6750
Connection ~ 9700 6850
Wire Wire Line
	9200 6350 9700 6350
Wire Wire Line
	9300 6350 9300 6550
Wire Wire Line
	6200 6050 6200 5550
Wire Wire Line
	6200 5550 6100 5550
$Comp
L POT RV2
U 1 1 614C6DB5
P 9050 6100
F 0 "RV2" V 9100 6300 50  0000 C CNN
F 1 "500" V 9050 6100 50  0000 C CNN
F 2 "Potentiometers:Potentiometer_Trimmer_Bourns_3296W" H 9050 6100 50  0001 C CNN
F 3 "" H 9050 6100 50  0001 C CNN
	1    9050 6100
	0    -1   -1   0   
$EndComp
Connection ~ 9300 6350
Wire Wire Line
	8900 6100 8800 6100
Wire Wire Line
	8800 6100 8800 6350
Wire Wire Line
	8800 6350 8900 6350
Wire Wire Line
	9300 5350 9300 5150
$Comp
L POT RV1
U 1 1 614C766A
P 9050 5600
F 0 "RV1" V 9100 5800 50  0000 C CNN
F 1 "500" V 9050 5600 50  0000 C CNN
F 2 "Potentiometers:Potentiometer_Trimmer_Bourns_3296W" H 9050 5600 50  0001 C CNN
F 3 "" H 9050 5600 50  0001 C CNN
	1    9050 5600
	0    -1   1    0   
$EndComp
Wire Wire Line
	8900 5600 8800 5600
Wire Wire Line
	8800 5600 8800 5350
Wire Wire Line
	8800 5350 8900 5350
Wire Wire Line
	9300 6100 9200 6100
Wire Wire Line
	9050 5950 9300 5950
Connection ~ 9300 5950
Wire Wire Line
	9200 5600 9300 5600
Wire Wire Line
	9050 5750 9300 5750
Connection ~ 9300 5750
Wire Wire Line
	9700 6350 9700 6450
Wire Wire Line
	6250 6050 6800 6050
$Comp
L TEST TP1
U 1 1 614D9BF9
P 8800 4750
F 0 "TP1" H 8800 5050 50  0000 C BNN
F 1 "+VCC" H 8800 5000 50  0000 C CNN
F 2 "Pin_Headers:Pin_Header_Straight_1x01_Pitch2.54mm" H 8800 4750 50  0001 C CNN
F 3 "" H 8800 4750 50  0001 C CNN
	1    8800 4750
	1    0    0    -1  
$EndComp
$Comp
L TEST TP2
U 1 1 614D9CD6
P 8800 6950
F 0 "TP2" H 8800 7250 50  0000 C BNN
F 1 "-VCC" H 8800 7200 50  0000 C CNN
F 2 "Pin_Headers:Pin_Header_Straight_1x01_Pitch2.54mm" H 8800 6950 50  0001 C CNN
F 3 "" H 8800 6950 50  0001 C CNN
	1    8800 6950
	-1   0    0    1   
$EndComp
$Comp
L TEST TP3
U 1 1 614DA04B
P 11950 5600
F 0 "TP3" H 11950 5900 50  0000 C BNN
F 1 "VDD" H 11950 5850 50  0000 C CNN
F 2 "Pin_Headers:Pin_Header_Straight_1x01_Pitch2.54mm" H 11950 5600 50  0001 C CNN
F 3 "" H 11950 5600 50  0001 C CNN
	1    11950 5600
	1    0    0    -1  
$EndComp
$Comp
L TEST TP4
U 1 1 614DA24D
P 11950 6100
F 0 "TP4" H 11950 6400 50  0000 C BNN
F 1 "VEE" H 11950 6350 50  0000 C CNN
F 2 "Pin_Headers:Pin_Header_Straight_1x01_Pitch2.54mm" H 11950 6100 50  0001 C CNN
F 3 "" H 11950 6100 50  0001 C CNN
	1    11950 6100
	-1   0    0    1   
$EndComp
$Comp
L TEST TP5
U 1 1 614DA4A3
P 9500 5750
F 0 "TP5" H 9500 6050 50  0000 C BNN
F 1 "GND" H 9500 6000 50  0000 C CNN
F 2 "Pin_Headers:Pin_Header_Straight_1x01_Pitch2.54mm" H 9500 5750 50  0001 C CNN
F 3 "" H 9500 5750 50  0001 C CNN
	1    9500 5750
	1    0    0    -1  
$EndComp
Wire Wire Line
	9500 5750 9500 5850
Connection ~ 9500 5850
$EndSCHEMATC
